<svg width="24" height="24" viewBox="0 0 24 24" fill="none" xmlns="http://www.w3.org/2000/svg">
<path d="M20 15.45C18.75 15.45 17.55 15.25 16.43 14.88C16.33 14.85 16.22 14.83 16.12 14.83C15.86 14.83 15.61 14.93 15.41 15.12L13.21 17.32C10.38 15.88 8.06 13.57 6.62 10.73L8.82 8.51995C9.1 8.25995 9.18 7.86995 9.07 7.51995C8.7 6.39995 8.5 5.19995 8.5 3.94995C8.5 3.39995 8.05 2.94995 7.5 2.94995H4C3.45 2.94995 3 3.39995 3 3.94995C3 13.34 10.61 20.95 20 20.95C20.55 20.95 21 20.5 21 19.95V16.45C21 15.9 20.55 15.45 20 15.45ZM5.03 4.94995H6.53C6.6 5.82995 6.75 6.69995 6.98 7.52995L5.78 8.73995C5.38 7.52995 5.12 6.26995 5.03 4.94995ZM19 18.92C17.68 18.83 16.4 18.57 15.2 18.16L16.4 16.96C17.25 17.2 18.12 17.35 19 17.41V18.92ZM18 5.94995V2.94995H16V5.94995H13V7.94995H16V10.95H18V7.94995H21V5.94995H18Z" fill="black"/>
</svg>
