<svg width="24" height="24" viewBox="0 0 24 24" fill="none" xmlns="http://www.w3.org/2000/svg">
<path d="M11.0185 2.04445C9.9332 2.14737 8.69816 2.49356 7.69703 2.97541C6.66783 3.4713 5.89125 4.00461 5.09596 4.76716C4.22582 5.59052 3.60362 6.44195 3.04692 7.56003C1.17097 11.3213 1.85866 15.8545 4.76849 18.9046C7.73446 22.025 12.4407 22.8904 16.3049 21.0238C17.3341 20.528 18.1107 19.9946 18.906 19.2321C19.7761 18.4087 20.3983 17.5573 20.955 16.4392C22.7093 12.9166 22.2275 8.69215 19.7153 5.62794C17.6335 3.08769 14.3401 1.73101 11.0185 2.04445ZM13.0676 4.11689C14.9716 4.38822 16.754 5.34725 17.9797 6.76006C20.1036 9.21143 20.5527 12.5984 19.1399 15.4849C17.1704 19.4988 12.2957 21.1174 8.35666 19.059C5.95675 17.8053 4.41295 15.5457 4.09015 12.8183C4.02466 12.2569 4.05741 11.209 4.165 10.6289C4.72171 7.55535 6.98127 5.10866 10.0081 4.30402C10.9437 4.05139 12.1179 3.98122 13.0676 4.11689Z" fill="black"/>
<path d="M9.14733 7.15777L8.42221 7.88289L9.4748 8.93549L10.5274 9.98808H9.25025H7.97778V10.9939V11.9997H9.4748H10.9718V12.4909V12.9821H9.4748H7.97778V13.9879V14.9937H9.4748H10.9718V15.9996V17.0054H12.001H13.0302V15.9996V14.9937H14.5272H16.0243V13.9879V12.9821H14.5272H13.0302V12.4909V11.9997H14.5272H16.0243V10.9939V9.98808H14.7518H13.4747L14.5272 8.93549L15.5798 7.88289L14.8547 7.15777L14.1296 6.43265L13.0676 7.4946L12.001 8.56123L10.9344 7.4946L9.87245 6.43265L9.14733 7.15777Z" fill="black"/>
</svg>
