<svg width="24" height="24" viewBox="0 0 24 24" fill="none" xmlns="http://www.w3.org/2000/svg">
<path d="M20 15.5099C18.76 15.5099 17.55 15.3099 16.43 14.9399C16.33 14.8999 16.22 14.8899 16.12 14.8899C15.86 14.8899 15.61 14.9899 15.41 15.1799L13.21 17.3799C10.38 15.9299 8.06 13.6199 6.62 10.7899L8.82 8.58995C9.1 8.30995 9.18 7.91995 9.07 7.56995C8.7 6.44995 8.5 5.24995 8.5 3.99995C8.5 3.44995 8.05 2.99995 7.5 2.99995H4C3.45 2.99995 3 3.44995 3 3.99995C3 13.3899 10.61 20.9999 20 20.9999C20.55 20.9999 21 20.5499 21 19.9999V16.5099C21 15.9599 20.55 15.5099 20 15.5099ZM5.03 4.99995H6.53C6.6 5.88995 6.75 6.75995 6.99 7.58995L5.79 8.78995C5.38 7.58995 5.12 6.31995 5.03 4.99995ZM19 18.9699C17.68 18.8799 16.41 18.6199 15.2 18.2199L16.39 17.0299C17.24 17.2699 18.11 17.4199 18.99 17.4799V18.9699H19ZM18 8.99995H15.41L20.43 3.97995L19.02 2.56995L14 7.58995V4.99995H12V10.9999H18V8.99995Z" fill="black"/>
</svg>
